<?xml version="1.0" encoding="UTF-8" standalone="no"?>
<!-- Created with Inkscape (http://www.inkscape.org/) -->

<svg
   width="69.109634mm"
   height="30.427082mm"
   viewBox="0 0 69.109634 30.427082"
   version="1.1"
   id="svg4151"
   inkscape:version="1.2.2 (732a01da63, 2022-12-09)"
   sodipodi:docname="txt_BourseEqu_en.svg"
   xmlns:inkscape="http://www.inkscape.org/namespaces/inkscape"
   xmlns:sodipodi="http://sodipodi.sourceforge.net/DTD/sodipodi-0.dtd"
   xmlns="http://www.w3.org/2000/svg"
   xmlns:svg="http://www.w3.org/2000/svg">
  <sodipodi:namedview
     id="namedview4153"
     pagecolor="#ffffff"
     bordercolor="#666666"
     borderopacity="1.0"
     inkscape:showpageshadow="2"
     inkscape:pageopacity="0.0"
     inkscape:pagecheckerboard="0"
     inkscape:deskcolor="#d1d1d1"
     inkscape:document-units="mm"
     showgrid="false"
     inkscape:zoom="1.0066639"
     inkscape:cx="-40.231899"
     inkscape:cy="-6.9536615"
     inkscape:window-width="1366"
     inkscape:window-height="705"
     inkscape:window-x="-8"
     inkscape:window-y="-8"
     inkscape:window-maximized="1"
     inkscape:current-layer="layer1" />
  <defs
     id="defs4148">
    <rect
       x="-154.96732"
       y="84.437321"
       width="185.76211"
       height="106.29169"
       id="rect4681" />
    <rect
       x="188.74225"
       y="349.66986"
       width="305.96112"
       height="109.27183"
       id="rect4550" />
    <rect
       x="150.9938"
       y="496.69012"
       width="492.71661"
       height="81.457184"
       id="rect4544" />
    <clipPath
       clipPathUnits="userSpaceOnUse"
       id="clipPath4694">
      <g
         id="g4698">
        <rect
           x="16.238712"
           y="85.188225"
           width="80.67424"
           height="30.427082"
           id="rect4696"
           style="stroke-width:0.315086" />
      </g>
    </clipPath>
  </defs>
  <g
     inkscape:label="Calque 1"
     inkscape:groupmode="layer"
     id="layer1"
     transform="translate(-16.238713,-85.188223)">
    <rect
       style="fill:#aad43c;stroke-width:5.21401;fill-opacity:1"
       id="rect1372"
       width="79.375214"
       height="39.424778"
       x="10.193581"
       y="80.19442" />
    <path
       d="M 16.238713,85.188223 H 85.348349 V 115.61531 H 16.238713 Z"
       fill="#a9d33b"
       fill-opacity="0.992"
       id="path4277"
       style="stroke-width:0.29163"
       clip-path="url(#clipPath4694)" />
    <g
       aria-label="FIND A TEAM?"
       transform="matrix(0.26458333,0,0,0.26458333,67.857551,68.062803)"
       id="text4679"
       style="font-size:32px;line-height:1.25;white-space:pre;shape-inside:url(#rect4681)">
      <path
         d="m -139.0628,94.81607 h -7.584 v 4.032 h 6.88 v 5.312 h -6.88 v 9.472 h -6.272 v -24.128 h 13.856 v 5.312 z"
         style="font-weight:bold;font-family:Futura-Bold;-inkscape-font-specification:'Futura-Bold, Bold';fill:#ffffff"
         id="path4700" />
      <path
         d="m -129.3028,89.50407 v 24.128 h -6.272 v -24.128 h 6.272 z"
         style="font-weight:bold;font-family:Futura-Bold;-inkscape-font-specification:'Futura-Bold, Bold';fill:#ffffff"
         id="path4702" />
      <path
         d="m -125.20682,113.63207 v -24.128 h 6.272 l 11.488,14.752 h 0.064 v -14.752 h 6.272 v 24.128 h -6.272 l -11.488,-14.784 h -0.064 v 14.784 h -6.272 z"
         style="font-weight:bold;font-family:Futura-Bold;-inkscape-font-specification:'Futura-Bold, Bold';fill:#ffffff"
         id="path4704" />
      <path
         d="m -97.014805,113.63207 v -24.128 h 8.896 q 5.056,0.032 8.64,3.52 3.616,3.488 3.616,8.576 0,5.088 -3.616,8.576 -3.616,3.456 -8.64,3.456 h -8.896 z m 6.272,-18.816 v 13.504 h 1.408 q 2.816,0.032 4.864,-1.568 2.08,-1.632 2.08,-5.152 0,-3.232 -1.92,-4.992 -1.92,-1.76 -4.96,-1.76 l -1.472,-0.032 z"
         style="font-weight:bold;font-family:Futura-Bold;-inkscape-font-specification:'Futura-Bold, Bold';fill:#ffffff"
         id="path4706" />
      <path
         d="m -138.1348,150.11592 h -8.64 l -1.664,4.192 h -6.656 l 9.28,-24.128 h 6.848 l 9.088,24.128 h -6.688 l -1.568,-4.192 z m -1.696,-4.8 -2.56,-7.68 h -0.064 l -2.592,7.68 h 5.216 z"
         style="font-weight:bold;font-family:Futura-Bold;-inkscape-font-specification:'Futura-Bold, Bold';fill:#ffffff"
         id="path4708" />
      <path
         d="m -107.35078,135.49192 v 18.816 h -6.272 v -18.816 h -5.184 v -5.312 h 16.64 v 5.312 h -5.184 z"
         style="font-weight:bold;font-family:Futura-Bold;-inkscape-font-specification:'Futura-Bold, Bold';fill:#ffffff"
         id="path4710" />
      <path
         d="m -86.166749,135.49192 h -7.456 v 4.032 h 7.072 v 5.312 h -7.072 v 4.16 h 7.456 v 5.312 h -13.728 v -24.128 h 13.728 v 5.312 z"
         style="font-weight:bold;font-family:Futura-Bold;-inkscape-font-specification:'Futura-Bold, Bold';fill:#ffffff"
         id="path4712" />
      <path
         d="m -67.510773,150.11592 h -8.64 l -1.664,4.192 h -6.656 l 9.28,-24.128 h 6.848 l 9.088,24.128 h -6.688 l -1.568,-4.192 z m -1.696,-4.8 -2.56,-7.68 h -0.064 l -2.592,7.68 h 5.216 z"
         style="font-weight:bold;font-family:Futura-Bold;-inkscape-font-specification:'Futura-Bold, Bold';fill:#ffffff"
         id="path4714" />
      <path
         d="m -58.742769,154.30792 4.096,-24.128 h 6.176 l 4.896,12.896 5.184,-12.896 h 6.24 l 3.648,24.128 h -6.272 l -1.76,-13.888 h -0.064 l -5.792,13.888 h -2.496 l -5.536,-13.888 h -0.064 l -2.016,13.888 h -6.24 z"
         style="font-weight:bold;font-family:Futura-Bold;-inkscape-font-specification:'Futura-Bold, Bold';fill:#ffffff"
         id="path4716" />
      <path
         d="m -18.902775,147.45992 q 1.568,0.032 2.656,1.12 1.088,1.088 1.088,2.656 0,1.536 -1.088,2.624 -1.088,1.088 -2.656,1.088 -1.568,0 -2.656,-1.088 -1.088,-1.088 -1.088,-2.624 0,-1.568 1.088,-2.656 1.088,-1.088 2.656,-1.088 z m -3.04,-1.216 v -6.208 q 0.352,0.096 0.672,0.16 0.352,0.032 0.672,0.032 0.224,0 0.48,0 0.256,-0.032 0.48,-0.096 1.184,-0.224 2.176,-0.992 0.992,-0.768 0.992,-2.08 0,-0.992 -0.672,-1.696 -0.64,-0.704 -1.664,-0.704 -1.088,0 -1.664,0.704 -0.576,0.704 -0.576,1.728 l -6.368,-0.032 q 0.032,-3.616 2.688,-5.536 2.688,-1.952 6.08,-1.952 1.504,0 2.944,0.48 1.472,0.48 2.656,1.504 1.216,0.992 1.984,2.464 0.768,1.472 0.768,3.072 0,2.72 -1.664,4.448 -1.664,1.696 -4.128,2.464 v 2.24 h -5.856 z"
         style="font-weight:bold;font-family:Futura-Bold;-inkscape-font-specification:'Futura-Bold, Bold';fill:#ffffff"
         id="path4718" />
    </g>
  </g>
</svg>
