<?xml version="1.0" encoding="UTF-8" standalone="no"?>
<!-- Created with Inkscape (http://www.inkscape.org/) -->

<svg
   width="69.109634mm"
   height="30.427082mm"
   viewBox="0 0 69.109634 30.427082"
   version="1.1"
   id="svg4151"
   inkscape:version="1.2.2 (732a01da63, 2022-12-09)"
   sodipodi:docname="txt_BourseEqu.svg"
   xmlns:inkscape="http://www.inkscape.org/namespaces/inkscape"
   xmlns:sodipodi="http://sodipodi.sourceforge.net/DTD/sodipodi-0.dtd"
   xmlns="http://www.w3.org/2000/svg"
   xmlns:svg="http://www.w3.org/2000/svg">
  <sodipodi:namedview
     id="namedview4153"
     pagecolor="#ffffff"
     bordercolor="#666666"
     borderopacity="1.0"
     inkscape:showpageshadow="2"
     inkscape:pageopacity="0.0"
     inkscape:pagecheckerboard="0"
     inkscape:deskcolor="#d1d1d1"
     inkscape:document-units="mm"
     showgrid="false"
     inkscape:zoom="1.0066639"
     inkscape:cx="81.953871"
     inkscape:cy="-6.9536618"
     inkscape:window-width="1366"
     inkscape:window-height="705"
     inkscape:window-x="-8"
     inkscape:window-y="298"
     inkscape:window-maximized="1"
     inkscape:current-layer="g4309" />
  <defs
     id="defs4148">
    <rect
       x="188.74225"
       y="349.66986"
       width="305.96112"
       height="109.27183"
       id="rect4550" />
    <rect
       x="150.9938"
       y="496.69012"
       width="492.71661"
       height="81.457184"
       id="rect4544" />
    <clipPath
       id="clip0">
      <rect
         x="599"
         y="557"
         width="215"
         height="115"
         id="rect4272" />
    </clipPath>
  </defs>
  <g
     inkscape:label="Calque 1"
     inkscape:groupmode="layer"
     id="layer1"
     transform="translate(-16.238713,-85.188223)">
    <g
       clip-path="url(#clip0)"
       transform="matrix(0.37522902,0,0,0.26458333,-208.52347,-62.184692)"
       id="g4309">
      <path
         d="M 599,557 H 783.17988 V 672 H 599 Z"
         fill="#a9d33b"
         fill-opacity="0.992"
         id="path4277"
         style="stroke-width:0.925555" />
      <text
         xml:space="preserve"
         transform="translate(537.62533,235.02876)"
         id="text4542"
         style="font-size:32px;line-height:1.25;font-family:sans-serif;white-space:pre;shape-inside:url(#rect4544)"><tspan
           x="150.99414"
           y="525.88402"
           id="tspan4643">Bourses aux éq</tspan></text>
    </g>
    <g
       aria-label="BOURSE 
AUX ÉQUIPIERS"
       transform="matrix(0.21074181,0,0,0.21074181,-18.653594,21.642288)"
       id="text4548"
       style="font-size:32px;line-height:1.25;font-family:Futura-Bold;-inkscape-font-specification:'Futura-Bold, Normal';white-space:pre;shape-inside:url(#rect4550);fill:#ffffff">
      <g
         id="g4609"
         transform="translate(-0.8818857,2.6456571)">
        <path
           d="m 215.97447,365.65251 h -11.95599 v -29.8504 h 11.08503 q 3.99852,0.0396 6.41348,1.78152 2.45454,1.74194 2.45454,6.01759 0,2.01906 -0.7522,3.60263 -0.71261,1.58358 -2.53372,2.49414 v 0.0396 q 3.20674,0.43549 4.63196,2.49414 1.4648,2.01905 1.4648,5.14661 0,4.67155 -3.36509,6.49266 -3.32551,1.78153 -7.44281,1.78153 z M 211.778,353.30062 v 6.41348 h 0.98973 q 0.0396,0.0396 0.0792,0.0396 0.0792,0 0.15836,0 0.47507,0 0.98973,0 0.51467,0 1.02933,-0.0396 1.4648,-0.11877 2.69208,-0.7522 1.22727,-0.63343 1.22727,-2.37536 0,-2.01906 -1.34604,-2.6129 -1.34604,-0.59384 -2.92962,-0.63343 -0.3563,0 -0.75219,0 -0.35631,0 -0.71261,0 -0.15836,0 -0.31672,0 -0.15836,0 -0.31671,0 z m 0,-11.5601 v 5.78005 h 0.87097 q 0.0396,0.0396 0.0792,0.0396 0.0792,0 0.15836,0 1.46481,-0.0396 2.69208,-0.55425 1.26686,-0.51466 1.26686,-2.33578 0,-1.82111 -1.18768,-2.33577 -1.18768,-0.51466 -2.57331,-0.55425 -0.19795,0 -0.3959,0 -0.15835,0 -0.3563,0 z"
           id="path4554"
           style="stroke-width:1.23717" />
        <path
           d="m 245.82487,334.81238 q 6.45307,0.0396 11.48092,4.35483 5.02785,4.27565 5.02785,11.04544 0,7.24485 -4.67155,11.83722 -4.63196,4.59237 -11.83722,4.59237 -7.16568,0 -11.83723,-4.59237 -4.67155,-4.59237 -4.67155,-11.83722 0,-6.76979 5.02786,-11.04544 5.02785,-4.31524 11.48092,-4.31524 z m 0,7.52198 q -3.48387,0.0396 -5.978,2.45454 -2.45454,2.37536 -2.45454,5.46334 0,3.84017 2.45454,6.37389 2.49413,2.53372 5.978,2.53372 3.48386,0 5.9384,-2.53372 2.49413,-2.53372 2.49413,-6.37389 0,-3.08798 -2.49413,-5.46334 -2.45454,-2.41495 -5.9384,-2.41495 z"
           id="path4556"
           style="stroke-width:1.23717" />
        <path
           d="m 284.06817,335.80211 h 7.75952 v 16.7859 q 0,2.92961 -0.47507,5.66128 -0.43549,2.73167 -2.65249,4.90908 -1.42522,1.42522 -3.40469,2.17742 -1.93988,0.71261 -3.99853,0.95015 -0.63343,0.0792 -1.26686,0.11876 -0.63343,0.0396 -1.22727,0.0396 -0.59384,0 -1.22727,-0.0396 -0.63343,-0.0396 -1.26686,-0.11876 -2.05865,-0.23754 -4.03811,-0.95015 -1.93988,-0.7522 -3.3651,-2.17742 -2.21701,-2.17741 -2.69208,-4.90908 -0.43548,-2.73167 -0.43548,-5.62169 v -16.82549 h 7.75952 v 15.71699 q 0,0.27712 0,0.51466 0,0.19795 0,0.43548 0.0396,2.69208 0.91055,4.94867 0.91056,2.2566 4.35483,2.2566 3.44428,0 4.31525,-2.2566 0.91055,-2.25659 0.95014,-4.94867 0,-0.23753 0,-0.43548 0,-0.23754 0,-0.47507 z"
           id="path4558"
           style="stroke-width:1.23717" />
        <path
           d="m 312.17663,353.41939 9.38268,12.23312 h -9.6598 l -7.32404,-11.48092 h -0.0792 v 11.48092 h -7.75952 v -29.8504 h 11.59969 q 4.43401,0.0396 7.40322,2.2566 2.9692,2.17741 2.9692,6.96773 0,3.08797 -1.70234,5.50292 -1.66276,2.37536 -4.82991,2.92962 z m -7.68034,-11.67887 v 7.4428 h 0.7522 q 0.19795,0.0396 0.39589,0.0396 0.19795,0 0.35631,0 1.74193,-0.0792 3.16715,-0.79179 1.46481,-0.75219 1.46481,-2.92961 0,-2.17742 -1.46481,-2.89002 -1.42522,-0.7522 -3.16715,-0.83138 -0.15836,0 -0.35631,0 -0.19794,0 -0.39589,0 z"
           id="path4560"
           style="stroke-width:1.23717" />
        <path
           d="m 343.13554,337.46487 -3.08797,6.01758 q -1.06892,-0.87096 -2.41495,-1.38563 -1.30645,-0.55425 -2.73167,-0.55425 -0.19795,0 -0.43549,0.0396 -0.23753,0 -0.47507,0.0792 -0.91055,0.19795 -1.66275,0.79179 -0.7522,0.59384 -0.7522,1.58357 0,0.95015 0.71261,1.54399 0.71261,0.55425 1.54398,0.91056 0.31672,0.11876 0.59385,0.23753 0.31671,0.0792 0.59384,0.15836 l 1.97947,0.55425 q 3.12756,0.95015 5.22579,2.77126 2.13783,1.78152 2.13783,5.42374 0,0.15836 0,0.31672 0,0.15835 0,0.31671 -0.0792,2.05865 -0.7522,4.03812 -0.67302,1.93988 -2.33577,3.3651 -1.5044,1.30645 -3.40469,1.93988 -1.90029,0.63343 -3.87976,0.79178 -0.31671,0 -0.63343,0 -0.27712,0.0396 -0.55425,0.0396 -2.81085,0 -5.50292,-0.87096 -2.69208,-0.91056 -4.98827,-2.49413 l 3.32551,-6.29472 q 1.46481,1.30645 3.16715,2.21701 1.74194,0.91056 3.72141,0.91056 0.0792,0 0.15835,0 0.0792,0 0.15836,0 1.30645,-0.0792 2.37536,-0.79179 1.06892,-0.7522 1.06892,-2.21701 0,-1.1085 -0.91056,-1.78152 -0.87097,-0.67302 -1.97947,-1.06891 -0.47507,-0.15836 -0.95014,-0.27713 -0.47508,-0.15836 -0.87097,-0.27712 -0.0792,-0.0396 -0.19795,-0.0396 -0.0792,-0.0396 -0.15835,-0.0792 -3.52346,-0.98974 -5.6217,-2.53372 -2.09823,-1.54399 -2.09823,-5.78005 0,-4.55278 2.89002,-7.28445 2.92962,-2.73167 7.40322,-2.73167 0.91055,0 1.8607,0.11877 0.95014,0.0792 1.90029,0.31672 1.50439,0.31671 2.92961,0.83137 1.46481,0.51467 2.65249,1.18769 z"
           id="path4562"
           style="stroke-width:1.23717" />
        <path
           d="m 365.02843,342.37395 h -9.22433 v 4.98826 h 8.74926 v 6.57184 h -8.74926 v 5.14662 h 9.22433 v 6.57184 h -16.98384 v -29.8504 h 16.98384 z"
           id="path4564"
           style="stroke-width:1.23717" />
        <path
           d="m 218.80248,401.65024 h -8.64 l -1.664,4.192 h -6.656 l 9.28,-24.128 h 6.848 l 9.088,24.128 h -6.688 z m -1.696,-4.8 -2.56,-7.68 h -0.064 l -2.592,7.68 z"
           id="path4566" />
        <path
           d="m 243.66648,381.71424 h 6.272 v 13.568 q 0,2.368 -0.384,4.576 -0.352,2.208 -2.144,3.968 -1.152,1.152 -2.752,1.76 -1.568,0.576 -3.232,0.768 -0.512,0.064 -1.024,0.096 -0.512,0.032 -0.992,0.032 -0.48,0 -0.992,-0.032 -0.512,-0.032 -1.024,-0.096 -1.664,-0.192 -3.264,-0.768 -1.568,-0.608 -2.72,-1.76 -1.792,-1.76 -2.176,-3.968 -0.352,-2.208 -0.352,-4.544 v -13.6 h 6.272 v 12.704 q 0,0.224 0,0.416 0,0.16 0,0.352 0.032,2.176 0.736,4 0.736,1.824 3.52,1.824 2.784,0 3.488,-1.824 0.736,-1.824 0.768,-4 0,-0.192 0,-0.352 0,-0.192 0,-0.384 z"
           id="path4568" />
        <path
           d="m 261.04248,392.94624 -7.712,-11.232 h 7.712 l 3.68,6.24 3.68,-6.24 h 7.712 l -7.712,11.232 8.928,12.896 h -7.552 l -5.056,-7.872 -5.536,7.872 h -7.584 z"
           id="path4570" />
        <path
           d="m 303.85848,387.02624 h -7.456 v 4.032 h 7.072 v 5.312 h -7.072 v 4.16 h 7.456 v 5.312 h -13.728 v -24.128 h 13.728 z m -2.944,-12.576 -5.472,4.832 -2.592,-1.888 4.512,-5.504 z"
           id="path4572" />
        <path
           d="m 334.16245,406.45024 -5.76,0.896 -1.92,-2.272 q -1.376,0.832 -3.04,1.184 -1.632,0.384 -3.584,0.384 -5.792,0 -9.568,-3.712 -3.776,-3.712 -3.776,-9.568 0,-5.472 4.064,-8.928 4.064,-3.488 9.28,-3.488 5.632,0 9.472,3.52 3.872,3.52 3.872,9.408 0,2.4 -0.8,4.512 -0.8,2.08 -2.304,3.968 z m -10.304,-10.784 1.696,1.76 q 0.416,-0.544 0.672,-1.216 0.256,-0.672 0.384,-1.376 0.032,-0.224 0.032,-0.448 0.032,-0.256 0.032,-0.48 0,-2.72 -1.984,-4.8 -1.952,-2.08 -4.8,-2.08 -2.816,0 -4.832,1.952 -2.016,1.92 -2.016,4.416 0,3.104 2.016,5.152 2.016,2.048 4.832,2.048 0.48,0 0.96,-0.064 0.48,-0.096 0.96,-0.256 l -3.872,-3.872 z"
           id="path4574" />
        <path
           d="m 350.77042,381.71424 h 6.272 v 13.568 q 0,2.368 -0.384,4.576 -0.352,2.208 -2.144,3.968 -1.152,1.152 -2.752,1.76 -1.568,0.576 -3.232,0.768 -0.512,0.064 -1.024,0.096 -0.512,0.032 -0.992,0.032 -0.48,0 -0.992,-0.032 -0.512,-0.032 -1.024,-0.096 -1.664,-0.192 -3.264,-0.768 -1.568,-0.608 -2.72,-1.76 -1.792,-1.76 -2.176,-3.968 -0.352,-2.208 -0.352,-4.544 v -13.6 h 6.272 v 12.704 q 0,0.224 0,0.416 0,0.16 0,0.352 0.032,2.176 0.736,4 0.736,1.824 3.52,1.824 2.784,0 3.488,-1.824 0.736,-1.824 0.768,-4 0,-0.192 0,-0.352 0,-0.192 0,-0.384 z"
           id="path4576" />
        <path
           d="m 367.28242,381.71424 v 24.128 h -6.272 v -24.128 z"
           id="path4578" />
        <path
           d="m 371.3784,405.84224 v -24.128 h 9.6 q 3.904,0.032 6.336,1.92 2.432,1.888 2.432,6.048 0,4.256 -2.24,6.24 -2.208,1.952 -6.304,1.952 l -3.552,-0.032 v 8 z m 6.272,-19.072 v 6.016 h 1.056 q 1.696,0.032 3.104,-0.32 1.408,-0.384 1.408,-2.592 0,-2.272 -1.344,-2.656 -1.344,-0.416 -3.168,-0.416 z"
           id="path4580" />
        <path
           d="m 398.80238,381.71424 v 24.128 h -6.272 v -24.128 z"
           id="path4582" />
        <path
           d="m 416.62636,387.02624 h -7.456 v 4.032 h 7.072 v 5.312 h -7.072 v 4.16 h 7.456 v 5.312 h -13.728 v -24.128 h 13.728 z"
           id="path4584" />
        <path
           d="m 432.97834,395.95424 7.584,9.888 h -7.808 l -5.92,-9.28 h -0.064 v 9.28 h -6.272 v -24.128 h 9.376 q 3.584,0.032 5.984,1.824 2.4,1.76 2.4,5.632 0,2.496 -1.376,4.448 -1.344,1.92 -3.904,2.368 z m -6.208,-9.44 v 6.016 h 0.608 q 0.16,0.032 0.32,0.032 0.16,0 0.288,0 1.408,-0.064 2.56,-0.64 1.184,-0.608 1.184,-2.368 0,-1.76 -1.184,-2.336 -1.152,-0.608 -2.56,-0.672 -0.128,0 -0.288,0 -0.16,0 -0.32,0 z"
           id="path4586" />
        <path
           d="m 458.00235,383.05824 -2.496,4.864 q -0.864,-0.704 -1.952,-1.12 -1.056,-0.448 -2.208,-0.448 -0.16,0 -0.352,0.032 -0.192,0 -0.384,0.064 -0.736,0.16 -1.344,0.64 -0.608,0.48 -0.608,1.28 0,0.768 0.576,1.248 0.576,0.448 1.248,0.736 0.256,0.096 0.48,0.192 0.256,0.064 0.48,0.128 l 1.6,0.448 q 2.528,0.768 4.224,2.24 1.728,1.44 1.728,4.384 0,0.128 0,0.256 0,0.128 0,0.256 -0.064,1.664 -0.608,3.264 -0.544,1.568 -1.888,2.72 -1.216,1.056 -2.752,1.568 -1.536,0.512 -3.136,0.64 -0.256,0 -0.512,0 -0.224,0.032 -0.448,0.032 -2.272,0 -4.448,-0.704 -2.176,-0.736 -4.032,-2.016 l 2.688,-5.088 q 1.184,1.056 2.56,1.792 1.408,0.736 3.008,0.736 0.064,0 0.128,0 0.064,0 0.128,0 1.056,-0.064 1.92,-0.64 0.864,-0.608 0.864,-1.792 0,-0.896 -0.736,-1.44 -0.704,-0.544 -1.6,-0.864 -0.384,-0.128 -0.768,-0.224 -0.384,-0.128 -0.704,-0.224 -0.064,-0.032 -0.16,-0.032 -0.064,-0.032 -0.128,-0.064 -2.848,-0.8 -4.544,-2.048 -1.696,-1.248 -1.696,-4.672 0,-3.68 2.336,-5.888 2.368,-2.208 5.984,-2.208 0.736,0 1.504,0.096 0.768,0.064 1.536,0.256 1.216,0.256 2.368,0.672 1.184,0.416 2.144,0.96 z"
           id="path4588" />
      </g>
    </g>
  </g>
</svg>
